…
```
## # A tibble: 17,692 x 71
##    country commname spgroup spgroupname spcode sciname region unit  X1950
##    <chr>   <chr>      <dbl> <chr>       <chr>  <chr>    <dbl> <chr> <chr>
##  1 Albania Angelsh…      38 Sharks, ra… 10903… Squati…     37 Quan… ...  
##  2 Albania Atlanti…      36 Tunas, bon… 17501… Sarda …     37 Quan… ...  
##  3 Albania Barracu…      37 Miscellane… 17710… Sphyra…     37 Quan… ...  
##  4 Albania Blue an…      45 Shrimps, p… 22802… Ariste…     37 Quan… ...  
##  5 Albania Blue wh…      32 Cods, hake… 14804… Microm…     37 Quan… ...  
##  6 Albania Bluefish      37 Miscellane… 17020… Pomato…     37 Quan… ...  
##  7 Albania Bogue         33 Miscellane… 17039… Boops …     37 Quan… ...  
##  8 Albania Caramot…      45 Shrimps, p… 22801… Penaeu…     37 Quan… ...  
##  9 Albania Catshar…      38 Sharks, ra… 10801… Scylio…     37 Quan… ...  
## 10 Albania Common …      57 Squids, cu… 32102… Sepia …     37 Quan… ...  
## # … with 17,682 more rows, and 62 more variables: X1951 <chr>,
## #   X1952 <chr>, X1953 <chr>, X1954 <chr>, X1955 <chr>, X1956 <chr>,
## #   X1957 <chr>, X1958 <chr>, X1959 <chr>, X1960 <chr>, X1961 <chr>,
## #   X1962 <chr>, X1963 <chr>, X1964 <chr>, X1965 <chr>, X1966 <chr>,
## #   X1967 <chr>, X1968 <chr>, X1969 <chr>, X1970 <chr>, X1971 <chr>,
## #   X1972 <chr>, X1973 <chr>, X1974 <chr>, X1975 <chr>, X1976 <chr>,
## #   X1977 <chr>, X1978 <chr>, X1979 <chr>, X1980 <chr>, X1981 <chr>,
## #   X1982 <chr>, X1983 <chr>, X1984 <chr>, X1985 <chr>, X1986 <chr>,
## #   X1987 <chr>, X1988 <chr>, X1989 <chr>, X1990 <chr>, X1991 <chr>,
…
9. You are a fisheries scientist studying cephalopod catch during 2008-2012. Identify the top five consumers (by country) of cephalopods (don't worry about species for now). Restrict the data frame only to our variables of interest.

```r
fisheries_tidy_2 %>% 
  select(country, sciname, year, catch) %>% 
  filter (year <=2012 & year >= 2008) %>% 
  filter(sciname== "Cephalopoda") %>% 
  arrange(desc(catch))
```

```
## # A tibble: 115 x 4
##    country  sciname      year  catch
##    <chr>    <chr>       <dbl>  <dbl>
##  1 Viet Nam Cephalopoda  2010 260000
##  2 India    Cephalopoda  2012  82456
##  3 India    Cephalopoda  2011  75494
##  4 China    Cephalopoda  2012  61821
##  5 India    Cephalopoda  2008  55108
##  6 India    Cephalopoda  2009  54562
##  7 China    Cephalopoda  2009  53451
##  8 China    Cephalopoda  2010  51274
##  9 India    Cephalopoda  2012  14388
## 10 India    Cephalopoda  2010  13593
## # … with 105 more rows
```
*Vietnam, India, China, Madagascar, Cambodia*

10. Let's be more specific. Who consumes the most `Common cuttlefish`? Store this as a new object `cuttle`.


```r
cuttle <- fisheries_tidy_2
cuttle
```

```
## # A tibble: 1,114,596 x 10
##    country commname spgroup spgroupname spcode sciname region unit   year
##    <chr>   <chr>      <dbl> <chr>       <chr>  <chr>    <dbl> <chr> <dbl>
##  1 Albania Angelsh…      38 Sharks, ra… 10903… Squati…     37 Quan…  1950
##  2 Albania Atlanti…      36 Tunas, bon… 17501… Sarda …     37 Quan…  1950
##  3 Albania Barracu…      37 Miscellane… 17710… Sphyra…     37 Quan…  1950
##  4 Albania Blue an…      45 Shrimps, p… 22802… Ariste…     37 Quan…  1950
##  5 Albania Blue wh…      32 Cods, hake… 14804… Microm…     37 Quan…  1950
##  6 Albania Bluefish      37 Miscellane… 17020… Pomato…     37 Quan…  1950
##  7 Albania Bogue         33 Miscellane… 17039… Boops …     37 Quan…  1950
##  8 Albania Caramot…      45 Shrimps, p… 22801… Penaeu…     37 Quan…  1950
##  9 Albania Catshar…      38 Sharks, ra… 10801… Scylio…     37 Quan…  1950
## 10 Albania Common …      57 Squids, cu… 32102… Sepia …     37 Quan…  1950
## # … with 1,114,586 more rows, and 1 more variable: catch <dbl>
```

```r
cuttle %>% 
  select(country, commname, year, catch) %>% 
  filter (year <=2012 & year >= 2008) %>% 
  filter(commname== "Common cuttlefish") %>% 
  arrange(desc(catch))
```

```
## # A tibble: 105 x 4
##    country  commname           year catch
##    <chr>    <chr>             <dbl> <dbl>
##  1 France   Common cuttlefish  2012 13217
##  2 France   Common cuttlefish  2011 12966
##  3 France   Common cuttlefish  2009  8076
##  4 Tunisia  Common cuttlefish  2012  7717
##  5 Tunisia  Common cuttlefish  2011  6371
##  6 Tunisia  Common cuttlefish  2008  4913
##  7 Tunisia  Common cuttlefish  2009  3924
##  8 Portugal Common cuttlefish  2010  2027
##  9 Libya    Common cuttlefish  2009  1800
## 10 Libya    Common cuttlefish  2010  1750
## # … with 95 more rows
```
…
